{
  "type": "service_account",
  "project_id": "zippi-market-dev-a6385",
  "private_key_id": "ff7cf2c385e5efaf661dbbbb59be528c06aa2652",
  "private_key": "-----BEGIN PRIVATE KEY-----\nMIIEvAIBADANBgkqhkiG9w0BAQEFAASCBKYwggSiAgEAAoIBAQDd00mgqJzbkJtU\n4X+nIjRJm74t6eSMbLQnKVxQIO93MVv7AfIfats5h9dU4ySAOvFdN/bRpmoMPDFn\n4sfjWiHL9+rtJISWNkLo+h0LB8kJZMZM96oHQw2Qf163d4+qKJYef53jqP1PqAZx\nuDNUZW/0odhdrJnuFPfVV6x+i2MzvGq6dNXoIgdFjYNRUXC3hkeJ5wsD0RQOqOVe\nOOKH4F/Y8emPl2Vwt+uu5zAayRfSL6G0azQDdbe6OFY30b4i+crZRnWoJzkUMarG\nW0EPIwwcUyVWimCprazFbuXvWKhVNYzEewvN50ZYqOLRPhLV860xuOIK+Mj6ahtb\n7BYNrzb1AgMBAAECggEAAvBU6iI5u8XxbOE06/2txCjiTuDppHufMmKfpLce/Q0E\nGzH2J3jmsR8t2OPOfL1rK7E9XZ8vCfz1KZttSwOLbZSaAezJLeVHoycHIfmHLg7t\n+qCQWdrHT/oEAvm8R0SU4pANwzGes4K2HSUT1wMmBc9sGqeZ/Xe9JdAsyptlo86N\nqOd02pdTZbTM9tqlLVG5/cKh+5sZoadHHrzjaomf7vjJ30eDJQ2sPbudsDPAbhgE\nNKmcBczOWMHZO1VC34Fgntb3gQELNVloufkcOT1PEddYTqW29IzrfFhXNb2zmzno\nRaoxM5YrUlAvH6sNbVq7xJiAD9A08X47UToqumMOmQKBgQD3K7oKPbBtpB2HAmH8\n7YET6twgZ2cCUUFC/vV9iendvJSrV18SULc4ENbqCoi2mzmNtkutA22H8t2xHfEl\n8rbtTQbbGI+iJF0VWsCv11zlCcE8TLr5vwzuYTerpHfqJ2rmu0PDD5W8b52pV7v/\npDsW9jGB7wM51C080/XFrdO+jQKBgQDlv8mJFx1/rLsMHFZFSaSyClR7h/jHSktS\ndtk0XUKDaLzRsj8g6Hpi24Hi5sUFfUw7cwKmy+UOhCU1FGy7o4u6nkgzTLjFVTkH\ntTdLKZyit1ceVYFikCWihiyY1xpuJkTc2ygjlZgbkcSNxTtIqZouf0OpbvPvgUsm\nx80MeGSUCQKBgDgSCFMYaXSF3VjqNnZdHoH5LlR/gIOrESX0lpYS+iWeCQ/RczTB\ncL7cOxS+rQLXtberGgG2nFtRwe7S/wh/xfWRGrQLH1JF84PLoZiCP4WJr/dQ5L2R\nFIrjLPDYD4fjx0FuS9HtMCeeHmLzDyfQBsOPt+1k3hN5SYXaA5ADfdxlAoGAeoEu\nNDQoHYj737RIZ/+hmvGZJJlXFOTPjvQiUyKbMbiqXeH+eUyc3ZOQCW3lhkzOVjC4\nLDoyM/BQaqIubEsDWYnGk9wH9ejAVRTSm/hfNgAuqtUK/YRBHQ0QQJsJ08wCEgWl\nvHuqtKCgPrv5JYCR3tMrP/ASkBXP/aix9EFJ2AkCgYAJJy55IpGFCXdEDGP5KPxt\npt0b0t33Uaduh3Z0eo8nr7egf2RA+a0YO5GM74Xuqix26KgcIfRle3mgBbKFklVq\nWUnproHCvjTsvJMOtJHkYL5V1ZWQnQ3kHsWXSuzT6oqefQn5ZVrEBwYchEgQyz5c\nQ2lePD4OmPu2zXsFnjFgxA==\n-----END PRIVATE KEY-----\n",
  "client_email": "firebase-adminsdk-wbati@zippi-market-dev-a6385.iam.gserviceaccount.com",
  "client_id": "113193590740378922940",
  "auth_uri": "https://accounts.google.com/o/oauth2/auth",
  "token_uri": "https://oauth2.googleapis.com/token",
  "auth_provider_x509_cert_url": "https://www.googleapis.com/oauth2/v1/certs",
  "client_x509_cert_url": "https://www.googleapis.com/robot/v1/metadata/x509/firebase-adminsdk-wbati%40zippi-market-dev-a6385.iam.gserviceaccount.com"
}
